﻿Log file open, 02/28/18 21:02:32
LogInit:Display: Running engine for game: PersonalProject
LogPlatformFile: Not using cached read wrapper
LogInit:Display: RandInit(-866988866) SRandInit(-866988866).
LogTaskGraph: Started task graph with 5 named threads and 8 total threads with 1 sets of task threads.
LogStats: Stats thread started at 0.083116
LogInit: Using libcurl 7.47.1
LogInit:  - built for x86_64-pc-win32
LogInit:  - supports SSL with OpenSSL/1.0.2g
LogInit:  - supports HTTP deflate (compression) using libz 1.2.8
LogInit:  - other features:
LogInit:      CURL_VERSION_SSL
LogInit:      CURL_VERSION_LIBZ
LogInit:      CURL_VERSION_IPV6
LogInit:      CURL_VERSION_ASYNCHDNS
LogInit:      CURL_VERSION_LARGEFILE
LogInit:      CURL_VERSION_IDN
LogInit:  CurlRequestOptions (configurable via config and command line):
LogInit:  - bVerifyPeer = false  - Libcurl will NOT verify peer certificate
LogInit:  - bUseHttpProxy = false  - Libcurl will NOT use HTTP proxy
LogInit:  - bDontReuseConnections = false  - Libcurl will reuse connections
LogInit:  - CertBundlePath = nullptr  - Libcurl will use whatever was configured at build time.
LogInit: Build: ++UE4+Release-4.15-CL-3450819
LogInit: Engine Version: 4.15.3-3450819+++UE4+Release-4.15
LogInit: Compatible Engine Version: 4.15.0-3299760+++UE4+Release-4.15
LogInit: Net CL: 3299760
LogDevObjectVersion: Number of dev versions registered: 14
LogDevObjectVersion:   Dev-Blueprints (B0D832E4-1F89-4F0D-ACCF-7EB736FD4AA2): 8
LogDevObjectVersion:   Dev-Build (E1C64328-A22C-4D53-A36C-8E866417BD8C): 0
LogDevObjectVersion:   Dev-Core (375EC13C-06E4-48FB-B500-84F0262A717E): 2
LogDevObjectVersion:   Dev-Editor (E4B068ED-F494-42E9-A231-DA0B2E46BB41): 14
LogDevObjectVersion:   Dev-Framework (CFFC743F-43B0-4480-9391-14DF171D2073): 22
LogDevObjectVersion:   Dev-Mobile (B02B49B5-BB20-44E9-A304-32B752E40360): 0
LogDevObjectVersion:   Dev-Networking (A4E4105C-59A1-49B5-A7C5-40C4547EDFEE): 0
LogDevObjectVersion:   Dev-Online (39C831C9-5AE6-47DC-9A44-9C173E1C8E7C): 0
LogDevObjectVersion:   Dev-Physics (78F01B33-EBEA-4F98-B9B4-84EACCB95AA2): 0
LogDevObjectVersion:   Dev-Platform (6631380F-2D4D-43E0-8009-CF276956A95A): 0
LogDevObjectVersion:   Dev-Rendering (12F88B9F-8875-4AFC-A67C-D90C383ABD29): 12
LogDevObjectVersion:   Dev-Sequencer (7B5AE74C-D270-4C10-A958-57980B212A5A): 3
LogDevObjectVersion:   Dev-VR (D7296918-1DD6-4BDD-9DE2-64A83CC13884): 0
LogDevObjectVersion:   Dev-LoadTimes (C2A15278-BFE7-4AFE-6C17-90FF531DF755): 1
LogInit: Compiled (64-bit): May 21 2017 11:02:34
LogInit: Compiled with Visual C++: 19.00.23026.00
LogInit: Build Configuration: Development
LogInit: Branch Name: ++UE4+Release-4.15
LogInit: Command line: -EpicPortal 
LogInit: Base directory: C:/Program Files/Epic Games/UE_4.15/Engine/Binaries/Win64/
LogInit: Installed Engine Build: 1
LogInit: Presizing for max 8388607 objects, including 0 objects not considered by GC, pre-allocating 0 bytes for permanent pool.
LogInit: Object subsystem initialized
[2018.03.01-05.02.33:634][  0]LogInit: Selected Device Profile: [Windows]
[2018.03.01-05.02.33:634][  0]LogInit: Applying CVar settings loaded from the selected device profile: [Windows]
[2018.03.01-05.02.33:663][  0]LogInit: Computer: DESKTOP-6HF668T
[2018.03.01-05.02.33:663][  0]LogInit: User: Ather
[2018.03.01-05.02.33:663][  0]LogInit: CPU Page size=65536, Cores=4
[2018.03.01-05.02.33:663][  0]LogInit: High frequency timer resolution =3.507520 MHz
[2018.03.01-05.02.33:663][  0]LogMemory: Memory total: Physical=8.0GB (8GB approx)
[2018.03.01-05.02.33:663][  0]LogMemory: Platform Memory Stats for Windows
[2018.03.01-05.02.33:663][  0]LogMemory: Process Physical Memory: 264.38 MB used, 264.38 MB peak
[2018.03.01-05.02.33:663][  0]LogMemory: Process Virtual Memory: 262.49 MB used, 262.49 MB peak
[2018.03.01-05.02.33:663][  0]LogMemory: Physical Memory: 4971.22 MB used,  3171.98 MB free, 8143.20 MB total
[2018.03.01-05.02.33:663][  0]LogMemory: Virtual Memory: 669.09 MB used,  3171.98 MB free, 134217728.00 MB total
[2018.03.01-05.02.33:763][  0]LogTextLocalizationManager: No specific translations for ('en-US') exist, so ('en') translations will be used.
[2018.03.01-05.02.37:276][  0]LogD3D11RHI: D3D11 adapters:
[2018.03.01-05.02.37:371][  0]LogD3D11RHI:    0. 'NVIDIA GeForce GT 720' (Feature Level 11_0)
[2018.03.01-05.02.37:371][  0]LogD3D11RHI:       995/0/4071 MB DedicatedVideo/DedicatedSystem/SharedSystem, Outputs:2, VendorId:0x10de
[2018.03.01-05.02.37:374][  0]LogD3D11RHI:    1. 'Microsoft Basic Render Driver' (Feature Level 11_0)
[2018.03.01-05.02.37:374][  0]LogD3D11RHI:       0/0/4071 MB DedicatedVideo/DedicatedSystem/SharedSystem, Outputs:0, VendorId:0x1414
[2018.03.01-05.02.37:374][  0]LogD3D11RHI: Chosen D3D11 Adapter: 0
[2018.03.01-05.02.37:380][  0]LogD3D11RHI: Creating new Direct3DDevice
[2018.03.01-05.02.37:380][  0]LogD3D11RHI:     GPU DeviceId: 0x1286 (for the marketing name, search the web for "GPU Device Id")
[2018.03.01-05.02.37:380][  0]LogWindows: EnumDisplayDevices:
[2018.03.01-05.02.37:380][  0]LogWindows:    0. 'NVIDIA GeForce GT 720' (P:1 D:1)
[2018.03.01-05.02.37:380][  0]LogWindows:    1. 'NVIDIA GeForce GT 720' (P:0 D:1)
[2018.03.01-05.02.37:380][  0]LogWindows:    2. 'NVIDIA GeForce GT 720' (P:0 D:0)
[2018.03.01-05.02.37:380][  0]LogWindows: DebugString: GetVideoDriverDetailsInvalid PrimaryIsNotTheChoosenAdapter GetVideoDriverDetailsInvalid PrimaryIsNotTheChoosenAdapter GetVideoDriverDetailsInvalid PrimaryIsNotTheChoosenAdapter FoundDriverCount:0 
[2018.03.01-05.02.37:380][  0]LogD3D11RHI:     Adapter Name: NVIDIA GeForce GT 720
[2018.03.01-05.02.37:380][  0]LogD3D11RHI:   Driver Version: Unknown (internal:Unknown, unified:Unknown)
[2018.03.01-05.02.37:380][  0]LogD3D11RHI:      Driver Date: Unknown
[2018.03.01-05.02.37:380][  0]LogRHI: Texture pool is 696 MB (70% of 995 MB)
[2018.03.01-05.02.37:409][  0]LogD3D11RHI:Warning: Timestamp queries are currently disabled on this hardware due to instability. Realtime GPU stats will not be available. You can override this behaviour by setting r.NVIDIATimestampWorkaround to 0
[2018.03.01-05.02.37:411][  0]LogD3D11RHI: Async texture creation enabled
[2018.03.01-05.02.37:424][  0]LogD3D11RHI: GPU Timing Frequency: 1000.000000 (Debug: 2 1)
[2018.03.01-05.02.37:427][  0]LogShaderCompilers: Guid format shader working directory is -26 characters bigger than the processId version (../../../../../../Users/Ather/Documents/Unreal Projects/PersonalProject/Intermediate/Shaders/WorkingDirectory/13792/).
[2018.03.01-05.02.37:427][  0]LogShaderCompilers: Cleaned the shader compiler working directory 'C:/Users/Ather/AppData/Local/Temp/UnrealShaderWorkingDir/AD5B94094835798DB84557915F1473F4/'.
[2018.03.01-05.02.37:427][  0]LogShaderCompilers:Display: Using Local Shader Compiler.
[2018.03.01-05.02.40:487][  0]LogTemp:Display: Loaded TP AllDesktopTargetPlatform
[2018.03.01-05.02.40:559][  0]LogTemp:Display: Loaded TP MacClientTargetPlatform
[2018.03.01-05.02.40:618][  0]LogTemp:Display: Loaded TP MacNoEditorTargetPlatform
[2018.03.01-05.02.40:674][  0]LogTemp:Display: Loaded TP MacServerTargetPlatform
[2018.03.01-05.02.40:747][  0]LogTemp:Display: Loaded TP MacTargetPlatform
[2018.03.01-05.02.40:803][  0]LogTemp:Display: Loaded TP WindowsClientTargetPlatform
[2018.03.01-05.02.40:859][  0]LogTemp:Display: Loaded TP WindowsNoEditorTargetPlatform
[2018.03.01-05.02.40:920][  0]LogTemp:Display: Loaded TP WindowsServerTargetPlatform
[2018.03.01-05.02.40:981][  0]LogTemp:Display: Loaded TP WindowsTargetPlatform
[2018.03.01-05.02.41:052][  0]LogTemp:Display: Loaded TP AndroidTargetPlatform
[2018.03.01-05.02.41:106][  0]LogTemp:Display: Loaded TP Android_ASTCTargetPlatform
[2018.03.01-05.02.41:164][  0]LogTemp:Display: Loaded TP Android_ATCTargetPlatform
[2018.03.01-05.02.41:233][  0]LogTemp:Display: Loaded TP Android_DXTTargetPlatform
[2018.03.01-05.02.41:298][  0]LogTemp:Display: Loaded TP Android_ETC1TargetPlatform
[2018.03.01-05.02.41:359][  0]LogTemp:Display: Loaded TP Android_ETC2TargetPlatform
[2018.03.01-05.02.41:469][  0]LogTemp:Display: Loaded TP Android_MultiTargetPlatform
[2018.03.01-05.02.41:469][  0]LogTemp:Display: Loaded TP Android_PVRTCTargetPlatform
[2018.03.01-05.02.41:518][  0]LogTemp:Display: Loaded TP HTML5TargetPlatform
[2018.03.01-05.02.41:797][  0]LogTemp:Display: Loaded TP IOSTargetPlatform
[2018.03.01-05.02.41:835][  0]LogTemp:Display: Loaded TP TVOSTargetPlatform
[2018.03.01-05.02.41:895][  0]LogTemp:Display: Loaded TP LinuxClientTargetPlatform
[2018.03.01-05.02.41:952][  0]LogTemp:Display: Loaded TP LinuxNoEditorTargetPlatform
[2018.03.01-05.02.42:014][  0]LogTemp:Display: Loaded TP LinuxServerTargetPlatform
[2018.03.01-05.02.42:090][  0]LogTemp:Display: Loaded TP LinuxTargetPlatform
[2018.03.01-05.02.42:090][  0]LogTargetPlatformManager:Display: Building Assets For Windows
[2018.03.01-05.02.43:092][  0]LogDerivedDataCache:Display: Max Cache Size: 512 MB
[2018.03.01-05.02.46:172][  0]LogDerivedDataCache: Loaded boot cache 3.08s 50MB C:/Users/Ather/AppData/Local/UnrealEngine/4.15/DerivedDataCache/Boot.ddc.
[2018.03.01-05.02.46:172][  0]LogDerivedDataCache:Display: Loaded Boot cache: C:/Users/Ather/AppData/Local/UnrealEngine/4.15/DerivedDataCache/Boot.ddc
[2018.03.01-05.02.46:172][  0]LogDerivedDataCache: FDerivedDataBackendGraph:  Pak pak cache file ../../../../../../Users/Ather/Documents/Unreal Projects/PersonalProject/DerivedDataCache/DDC.ddp not found, will not use a pak cache.
[2018.03.01-05.02.46:172][  0]LogDerivedDataCache: Unable to find inner node Pak for hierarchical cache Hierarchy.
[2018.03.01-05.02.46:172][  0]LogDerivedDataCache: FDerivedDataBackendGraph:  CompressedPak pak cache file ../../../../../../Users/Ather/Documents/Unreal Projects/PersonalProject/DerivedDataCache/Compressed.ddp not found, will not use a pak cache.
[2018.03.01-05.02.46:172][  0]LogDerivedDataCache: Unable to find inner node CompressedPak for hierarchical cache Hierarchy.
[2018.03.01-05.02.46:194][  0]LogDerivedDataCache:Display: Pak cache opened for reading ../../../Engine/DerivedDataCache/Compressed.ddp.
[2018.03.01-05.02.46:207][  0]LogDerivedDataCache: Using Local data cache path C:/Users/Ather/AppData/Local/UnrealEngine/Common/DerivedDataCache: Writable
[2018.03.01-05.02.46:217][  0]LogSlate: Using Freetype 2.6.0
[2018.03.01-05.02.46:242][  0]LogSlate: SlateFontCache - WITH_FREETYPE: 1, WITH_HARFBUZZ: 1
[2018.03.01-05.02.46:242][  0]LogSlate: SlateFontCache - WITH_FREETYPE: 1, WITH_HARFBUZZ: 1
[2018.03.01-05.02.48:502][  0]LogInit: Selected Device Profile: [Windows]
[2018.03.01-05.02.48:505][  0]LogContentStreaming: Texture pool size is 0.00 MB
[2018.03.01-05.02.48:778][  0]LogMeshUtilities: Using QuadricMeshReduction for automatic static mesh reduction
[2018.03.01-05.02.48:826][  0]LogSimplygon: Simplygon DLL not present - disabling.
[2018.03.01-05.02.48:897][  0]LogMeshUtilities: Using SimplygonSwarm for distributed automatic mesh merging
[2018.03.01-05.02.48:897][  0]LogMeshUtilities: No automatic skeletal mesh reduction module available
[2018.03.01-05.02.48:897][  0]LogMeshUtilities: No automatic mesh merging module available
[2018.03.01-05.02.49:613][  0]LogNetVersion: GetLocalNetworkVersion: CL: 3299760, ProjectName: personalproject, ProjectVersion: , EngineNetworkVersion: 2, GameNetworkVersion: 0, NetworkChecksum: 2828728814
[2018.03.01-05.02.49:675][  0]LogAssetRegistry: FAssetRegistry took 0.0218 seconds to start up
[2018.03.01-05.02.49:873][  0]LogPackageLocalizationCache: Processed 3 localized package path(s) for 2 prioritized culture(s) in 0.163946 seconds
[2018.03.01-05.02.49:879][  0]LogUObjectArray: 32493 objects as part of root set at end of initial load.
[2018.03.01-05.02.49:879][  0]LogUObjectAllocator: 7077024 out of 0 bytes used by permanent object pool.
[2018.03.01-05.02.49:879][  0]LogUObjectArray: CloseDisregardForGC: 0/0 objects in disregard for GC pool
[2018.03.01-05.02.49:953][  0]LogInit: WinSock: version 1.1 (2.2), MaxSocks=32767, MaxUdp=65467
[2018.03.01-05.03.04:832][  0]LogTcpMessaging: Initializing TcpMessaging bridge
[2018.03.01-05.03.04:888][  0]LogUdpMessaging: Initializing bridge on interface 0.0.0.0:0 to multicast group 230.0.0.1:6666.
[2018.03.01-05.03.06:102][  0]LogMaterial: Uniform references updated for custom material expression Custom.
[2018.03.01-05.03.06:558][  0]SourceControl: Info Source control is disabled
[2018.03.01-05.03.06:663][  0]SourceControl: Info Source control is disabled
[2018.03.01-05.03.06:723][  0]SourceControl: Info Source control is disabled
[2018.03.01-05.03.06:812][  0]SourceControl: Info Source control is disabled
[2018.03.01-05.03.08:800][  0]LogEngine: Initializing Engine...
[2018.03.01-05.03.08:802][  0]LogHMD: Failed to initialize OpenVR with code 110
[2018.03.01-05.03.08:922][  0]LogStats: UGameplayTagsManager::ConstructGameplayTagTree: Construct from data asset -  0.000 s
[2018.03.01-05.03.08:922][  0]LogStats: UGameplayTagsManager::ConstructGameplayTagTree: GameplayTagTreeChangedEvent.Broadcast -  0.000 s
[2018.03.01-05.03.09:060][  0]LogAIModule: Creating AISystem for world Untitled
[2018.03.01-05.03.09:067][  0]LogInit: XAudio2 using 'Speakers / Headphones (Realtek High Definition Audio)' : 2 channels at 48 kHz using 32 bits per sample (channel mask 0x3)
[2018.03.01-05.03.09:095][  0]LogInit: FAudioDevice initialized.
[2018.03.01-05.03.09:128][  0]LogDerivedDataCache: Saved boot cache 0.03s 50MB C:/Users/Ather/AppData/Local/UnrealEngine/4.15/DerivedDataCache/Boot.ddc.
[2018.03.01-05.03.09:135][  0]LogInit: Texture streaming: Enabled
[2018.03.01-05.03.09:234][  0]LogEngineSessionManager: EngineSessionManager initialized
[2018.03.01-05.03.10:079][  0]LogInit: Transaction tracking system initialized
[2018.03.01-05.03.10:516][  0]BlueprintLog: New page: Editor Load
[2018.03.01-05.03.11:762][  0]LocalizationService: Info Localization service is disabled
[2018.03.01-05.03.12:732][  0]LogConsoleResponse:Display: 
[2018.03.01-05.03.12:944][  0]LogCook:Display: Max memory allowance for cook 16384mb min free memory 0mb
[2018.03.01-05.03.12:944][  0]LogCook:Display: Mobile HDR setting 1
[2018.03.01-05.03.13:729][  0]LogFileCache: Scanning file cache for directory 'C:/Users/Ather/Documents/Unreal Projects/PersonalProject/Content/' took 0.03s
[2018.03.01-05.03.14:368][  0]SourceControl: Info Source control is disabled
[2018.03.01-05.03.14:368][  0]Cmd: MAP LOAD FILE="../../../../../../Users/Ather/Documents/Unreal Projects/PersonalProject/Content/StarterContent/Maps/Minimal_Default.umap" TEMPLATE=0 SHOWPROGRESS=1 FEATURELEVEL=3
[2018.03.01-05.03.14:369][  0]LightingResults: New page: Lighting Build
[2018.03.01-05.03.14:414][  0]MapCheck: New page: Map Check
[2018.03.01-05.03.14:414][  0]LightingResults: New page: Lighting Build
[2018.03.01-05.03.16:927][  0]LogAIModule: Creating AISystem for world Minimal_Default
[2018.03.01-05.03.17:117][  0]LogEditorServer: Finished looking for orphan Actors (0.000 secs)
[2018.03.01-05.03.17:180][  0]Cmd: MAP CHECKDEP NOCLEARLOG
[2018.03.01-05.03.17:296][  0]MapCheck: Info Map check complete: 0 Error(s), 0 Warning(s), took 116.007ms to complete.
[2018.03.01-05.03.17:296][  0]LogFileHelpers: Loading map 'Minimal_Default' took 2.928
[2018.03.01-05.03.18:322][  0]LogCollectionManager: Loaded 0 collections in 0.002721 seconds
[2018.03.01-05.03.18:493][  0]LogFileCache: Scanning file cache for directory 'C:/Users/Ather/Documents/Unreal Projects/PersonalProject/Saved/Collections/' took 0.01s
[2018.03.01-05.03.18:493][  0]LogFileCache: Scanning file cache for directory 'C:/Users/Ather/Documents/Unreal Projects/PersonalProject/Content/Developers/Ather/Collections/' took 0.01s
[2018.03.01-05.03.18:493][  0]LogFileCache: Scanning file cache for directory 'C:/Users/Ather/Documents/Unreal Projects/PersonalProject/Content/Collections/' took 0.01s
[2018.03.01-05.03.18:493][  0]LogCollectionManager: Rebuilt the GUID cache for 0 collections in 0.000002 seconds
[2018.03.01-05.03.18:517][  0]LogContentBrowser: Native class hierarchy populated in 0.0184 seconds. Added 2249 classes and 455 folders.
[2018.03.01-05.03.18:682][  0]LogContentBrowser: Native class hierarchy updated for 'WidgetCarousel' in 0.0034 seconds. Added 0 classes and 0 folders.
[2018.03.01-05.03.19:966][  0]LogContentBrowser: Native class hierarchy updated for 'AddContentDialog' in 0.0039 seconds. Added 0 classes and 0 folders.
[2018.03.01-05.03.20:106][  0]LogContentBrowser: Native class hierarchy updated for 'SceneOutliner' in 0.0024 seconds. Added 1 classes and 2 folders.
[2018.03.01-05.03.20:858][  0]LogCrashTracker: Crashtracker disabled due to settings.
[2018.03.01-05.03.21:023][  0]LogUObjectGlobals:Warning: Failed to find object 'Class None.'
[2018.03.01-05.03.21:144][  0]LogContentBrowser: Native class hierarchy updated for 'HierarchicalLODOutliner' in 0.0024 seconds. Added 1 classes and 2 folders.
[2018.03.01-05.03.21:144][  0]LogLoad: (Engine Initialization) Total time: 52.83 seconds
[2018.03.01-05.03.21:144][  0]LogLoad: (Engine Initialization) Total Blueprint compile time: 0.29 seconds
[2018.03.01-05.03.21:144][  0]LogExternalProfiler: Found external profiler: VSPerf
[2018.03.01-05.03.21:144][  0]LogExternalProfiler: Using external profiler: VSPerf
[2018.03.01-05.03.21:485][  0]LogOcInput: OculusInput pre-init called
[2018.03.01-05.03.21:866][  0]LogContentStreaming: Texture pool size now 1000 MB
[2018.03.01-05.03.21:900][  0]LogSlate: Took 0.021652 seconds to synchronously load lazily loaded font '../../../Engine/Content/Slate/Fonts/Roboto-Regular.ttf' (155K)
[2018.03.01-05.03.21:907][  0]LogSlate: Took 0.000511 seconds to synchronously load lazily loaded font '../../../Engine/Content/Slate/Fonts/Roboto-Bold.ttf' (160K)
[2018.03.01-05.03.21:952][  0]LogSlate: Took 0.011289 seconds to synchronously load lazily loaded font '../../../Engine/Content/Editor/Slate/Fonts/FontAwesome.ttf' (139K)
[2018.03.01-05.03.22:972][  0]LogRenderer: Reallocating scene render targets to support 1208x600 NumSamples 1 (Frame:2).
[2018.03.01-05.03.22:973][  0]LogSlate: Took 0.082218 seconds to synchronously load lazily loaded font '../../../Engine/Content/Slate/Fonts/Roboto-Light.ttf' (159K)
[2018.03.01-05.03.24:162][  3]LogAssetRegistry: Asset discovery search completed in 34.5085 seconds
[2018.03.01-05.03.24:162][  3]LogCollectionManager: Rebuilt the object cache for 0 collections in 0.000013 seconds (found 0 objects)
[2018.03.01-05.03.24:162][  3]LogCollectionManager: Fixed up redirectors for 0 collections in 0.000053 seconds (updated 0 objects)
[2018.03.01-05.05.00:623][302]LogTemp: Repeting last play command: Standalone Game
[2018.03.01-05.05.00:889][302]LogSlate: Took 0.000474 seconds to synchronously load lazily loaded font '../../../Engine/Content/Slate/Fonts/Roboto-Light.ttf' (159K)
[2018.03.01-05.05.01:831][302]LogSavePackage: Save=589.63ms
[2018.03.01-05.05.01:831][302]LogSavePackage: Moving '../../../../../../Users/Ather/Documents/Unreal Projects/PersonalProject/Saved/UEDPCMinimal_Default158400A446B19F954764E581349756E7.tmp' to '../../../../../../Users/Ather/Documents/Unreal Projects/PersonalProject/Saved/Autosaves/Game/StarterContent/Maps/UEDPCMinimal_Default.umap'
[2018.03.01-05.05.01:839][302]LogSavePackage:Display: Finished SavePackage ../../../../../../Users/Ather/Documents/Unreal Projects/PersonalProject/Saved/Autosaves/Game/StarterContent/Maps/UEDPCMinimal_Default.umap
[2018.03.01-05.05.02:118][302]LogSavePackage: Save=121.25ms
[2018.03.01-05.05.02:118][302]LogSavePackage: Moving '../../../../../../Users/Ather/Documents/Unreal Projects/PersonalProject/Saved/Minimal_Default_BuiltData0F5AF1A742AF6A3D34D20BA2DFF7142B.tmp' to '../../../../../../Users/Ather/Documents/Unreal Projects/PersonalProject/Content/StarterContent/Maps/Minimal_Default_BuiltData.uasset'
[2018.03.01-05.05.02:120][302]LogSavePackage:Display: Finished SavePackage ../../../../../../Users/Ather/Documents/Unreal Projects/PersonalProject/Content/StarterContent/Maps/Minimal_Default_BuiltData.uasset
[2018.03.01-05.05.02:124][302]LogEditorTransaction: Undo Spawn Play From Here Start
[2018.03.01-05.05.42:507][540]LogSlate: Took 0.000179 seconds to synchronously load lazily loaded font '../../../Engine/Content/Slate/Fonts/Roboto-Regular.ttf' (155K)
[2018.03.01-05.05.43:366][540]LogContentBrowser: Native class hierarchy updated for 'BlueprintGraph' in 0.0030 seconds. Added 112 classes and 0 folders.
[2018.03.01-05.05.46:155][540]LogSlate: Took 0.000870 seconds to synchronously load lazily loaded font '../../../Engine/Content/Slate/Fonts/Roboto-Light.ttf' (159K)
[2018.03.01-05.05.46:177][540]LogSlate: Took 0.019776 seconds to synchronously load lazily loaded font '../../../Engine/Content/Editor/Slate/Fonts/Roboto-BoldCondensed.ttf' (158K)
[2018.03.01-05.06.13:995][315]Cmd: OBJ SAVEPACKAGE PACKAGE="/Game/Menu" FILE="../../../../../../Users/Ather/Documents/Unreal Projects/PersonalProject/Content/Menu.uasset" SILENT=true
[2018.03.01-05.06.14:026][315]LogSavePackage: Save=19.90ms
[2018.03.01-05.06.14:026][315]LogSavePackage: Moving '../../../../../../Users/Ather/Documents/Unreal Projects/PersonalProject/Saved/MenuF5AE646741680F0C8B3DEFB895B1DC43.tmp' to '../../../../../../Users/Ather/Documents/Unreal Projects/PersonalProject/Content/Menu.uasset'
[2018.03.01-05.06.14:044][315]LogSavePackage:Display: Finished SavePackage ../../../../../../Users/Ather/Documents/Unreal Projects/PersonalProject/Content/Menu.uasset
[2018.03.01-05.06.14:744][339]BlueprintLog: New page: Compile Menu
[2018.03.01-05.06.20:019][481]LogBlueprint:Warning: [Compiler Ue4ASP_Character] Warning InputAction Event references unknown Action 'Crouch' for  InputAction Crouch
[2018.03.01-05.06.20:019][481]LogBlueprint:Warning: [Compiler Ue4ASP_Character] Warning InputAction Event references unknown Action 'Jump' for  InputAction Jump
[2018.03.01-05.06.20:019][481]LogBlueprint:Warning: [Compiler Ue4ASP_Character] Warning Input Axis Event references unknown Axis 'LookUp' for  InputAxis LookUp
[2018.03.01-05.06.20:019][481]LogBlueprint:Warning: [Compiler Ue4ASP_Character] Warning Input Axis Event references unknown Axis 'Turn' for  InputAxis Turn
[2018.03.01-05.06.20:025][481]LogBlueprint:Warning: [Compiler Ue4ASP_Character] Warning [0231.71] Compile of Ue4ASP_Character successful, but with 4 Warning(s) [in 41 ms] (/Game/AnimStarterPack/Ue4ASP_Character.Ue4ASP_Character)
[2018.03.01-05.06.20:025][481]LogBlueprint:Warning: [Compiler Ue4ASP_Character] Warning [0231.71] Compile of Ue4ASP_Character successful, but with 5 Warning(s) [in 0 ms] (/Game/AnimStarterPack/Ue4ASP_Character.Ue4ASP_Character)
[2018.03.01-05.06.20:025][481]LogBlueprint:Warning: [Compiler Ue4ASP_Character] Warning [0231.71] Compile of Ue4ASP_Character successful, but with 6 Warning(s) [in 0 ms] (/Game/AnimStarterPack/Ue4ASP_Character.Ue4ASP_Character)
[2018.03.01-05.06.20:110][481]LogBlueprint:Warning: [Compiler Ue4ASP_Character] Warning InputAction Event references unknown Action 'Crouch' for  InputAction Crouch
[2018.03.01-05.06.20:110][481]LogBlueprint:Warning: [Compiler Ue4ASP_Character] Warning InputAction Event references unknown Action 'Jump' for  InputAction Jump
[2018.03.01-05.06.20:111][481]LogBlueprint:Warning: [Compiler Ue4ASP_Character] Warning Input Axis Event references unknown Axis 'LookUp' for  InputAxis LookUp
[2018.03.01-05.06.20:111][481]LogBlueprint:Warning: [Compiler Ue4ASP_Character] Warning Input Axis Event references unknown Axis 'Turn' for  InputAxis Turn
[2018.03.01-05.06.20:113][481]LogBlueprint:Warning: [Compiler Ue4ASP_Character] Warning [0231.79] Compile of Ue4ASP_Character successful, but with 4 Warning(s) [in 9 ms] (/Game/AnimStarterPack/Ue4ASP_Character.Ue4ASP_Character)
[2018.03.01-05.06.20:113][481]LogBlueprint:Warning: [Compiler Ue4ASP_Character] Warning [0231.79] Compile of Ue4ASP_Character successful, but with 5 Warning(s) [in 0 ms] (/Game/AnimStarterPack/Ue4ASP_Character.Ue4ASP_Character)
[2018.03.01-05.06.20:114][481]LogBlueprint:Warning: [Compiler Ue4ASP_Character] Warning [0231.80] Compile of Ue4ASP_Character successful, but with 6 Warning(s) [in 0 ms] (/Game/AnimStarterPack/Ue4ASP_Character.Ue4ASP_Character)
[2018.03.01-05.06.26:730][633]LogRenderer: Reallocating scene render targets to support 1228x744 NumSamples 1 (Frame:1230).
[2018.03.01-05.07.04:682][629]LogBlueprintUserMessages: Early PlayInEditor Detection: Level '/Game/StarterContent/Maps/Minimal_Default.Minimal_Default:PersistentLevel' has LevelScriptBlueprint '/Game/StarterContent/Maps/Minimal_Default.Minimal_Default:PersistentLevel.Minimal_Default' with GeneratedClass '/Game/StarterContent/Maps/Minimal_Default.Minimal_Default_C' with ClassGeneratedBy '/Game/StarterContent/Maps/Minimal_Default.Minimal_Default:PersistentLevel.Minimal_Default'
[2018.03.01-05.07.04:688][629]LogPlayLevel: PlayLevel: No blueprints needed recompiling
[2018.03.01-05.07.04:729][629]PIE: New page: PIE session: Minimal_Default (Feb 28, 2018, 1:07:04 PM)
[2018.03.01-05.07.04:742][629]LogPlayLevel: Creating play world package: /Game/StarterContent/Maps/UEDPIE_0_Minimal_Default
[2018.03.01-05.07.04:799][629]LogPlayLevel: PIE: StaticDuplicateObject took: (0.056770s)
[2018.03.01-05.07.04:800][629]LogAIModule: Creating AISystem for world Minimal_Default
[2018.03.01-05.07.04:801][629]LogPlayLevel: PIE: World Init took: (0.001347s)
[2018.03.01-05.07.04:814][629]LogPlayLevel: PIE: Created PIE world by copying editor world from /Game/StarterContent/Maps/Minimal_Default.Minimal_Default to /Game/StarterContent/Maps/UEDPIE_0_Minimal_Default.Minimal_Default (0.084345s)
[2018.03.01-05.07.04:864][629]LogInit: XAudio2 using 'Speakers / Headphones (Realtek High Definition Audio)' : 2 channels at 48 kHz using 32 bits per sample (channel mask 0x3)
[2018.03.01-05.07.04:907][629]LogInit: FAudioDevice initialized.
[2018.03.01-05.07.05:067][629]LogLoad: Game class is 'MyPersonalProjectGameModeBase_C'
[2018.03.01-05.07.05:075][629]LogWorld: Bringing World /Game/StarterContent/Maps/UEDPIE_0_Minimal_Default.Minimal_Default up for play (max tick rate 0) at 2018.02.28-21.07.05
[2018.03.01-05.07.05:075][629]LogWorld: Bringing up level for play took: 0.004175
[2018.03.01-05.07.05:182][629]LogContentBrowser: Native class hierarchy updated for 'MovieSceneCapture' in 0.0026 seconds. Added 11 classes and 0 folders.
[2018.03.01-05.07.05:185][629]PIE: Info Play in editor start time for /Game/StarterContent/Maps/UEDPIE_0_Minimal_Default 1.178
[2018.03.01-05.07.05:204][629]LogBlueprintUserMessages: Late PlayInEditor Detection: Level '/Game/StarterContent/Maps/Minimal_Default.Minimal_Default:PersistentLevel' has LevelScriptBlueprint '/Game/StarterContent/Maps/Minimal_Default.Minimal_Default:PersistentLevel.Minimal_Default' with GeneratedClass '/Game/StarterContent/Maps/Minimal_Default.Minimal_Default_C' with ClassGeneratedBy '/Game/StarterContent/Maps/Minimal_Default.Minimal_Default:PersistentLevel.Minimal_Default'
[2018.03.01-05.07.07:616][696]LogNet: Browse: /Game/StarterContent/Maps/Minimal_Default
[2018.03.01-05.07.07:616][696]LogLoad: LoadMap: /Game/StarterContent/Maps/Minimal_Default
[2018.03.01-05.07.07:686][696]Cmd: MEM
[2018.03.01-05.07.07:734][696]LogMemory: Platform Memory Stats for Windows
[2018.03.01-05.07.07:734][696]LogMemory: Process Physical Memory: 1286.24 MB used, 1472.33 MB peak
[2018.03.01-05.07.07:734][696]LogMemory: Process Virtual Memory: 1997.46 MB used, 2078.78 MB peak
[2018.03.01-05.07.07:734][696]LogMemory: Physical Memory: 5913.21 MB used,  2229.99 MB free, 8143.20 MB total
[2018.03.01-05.07.07:734][696]LogMemory: Virtual Memory: 2843.25 MB used,  2229.99 MB free, 134217728.00 MB total
[2018.03.01-05.07.07:734][696]LogMemory: 
[2018.03.01-05.07.07:734][696]Allocator Stats for TBB: (not implemented)
[2018.03.01-05.07.07:734][696]LogPlayLevel: Creating play world package: /Game/StarterContent/Maps/UEDPIE_0_Minimal_Default
[2018.03.01-05.07.07:746][696]LogPlayLevel: PIE: StaticDuplicateObject took: (0.012032s)
[2018.03.01-05.07.07:748][696]LogAIModule: Creating AISystem for world Minimal_Default
[2018.03.01-05.07.07:748][696]LogPlayLevel: PIE: World Init took: (0.001422s)
[2018.03.01-05.07.07:748][696]LogPlayLevel: PIE: Created PIE world by copying editor world from /Game/StarterContent/Maps/Minimal_Default.Minimal_Default to /Game/StarterContent/Maps/UEDPIE_0_Minimal_Default.Minimal_Default (0.013903s)
[2018.03.01-05.07.07:748][696]LogLoad: Game class is 'MyPersonalProjectGameModeBase_C'
[2018.03.01-05.07.07:752][696]LogWorld: Bringing World /Game/StarterContent/Maps/UEDPIE_0_Minimal_Default.Minimal_Default up for play (max tick rate 0) at 2018.02.28-21.07.07
[2018.03.01-05.07.07:752][696]LogWorld: Bringing up level for play took: 0.001402
[2018.03.01-05.07.07:755][696]LogLoad: Took 0.139379 seconds to LoadMap(/Game/StarterContent/Maps/UEDPIE_0_Minimal_Default)
[2018.03.01-05.07.10:704][792]LogBlueprintUserMessages: Early EndPlayMap Detection: Level '/Game/StarterContent/Maps/Minimal_Default.Minimal_Default:PersistentLevel' has LevelScriptBlueprint '/Game/StarterContent/Maps/Minimal_Default.Minimal_Default:PersistentLevel.Minimal_Default' with GeneratedClass '/Game/StarterContent/Maps/Minimal_Default.Minimal_Default_C' with ClassGeneratedBy '/Game/StarterContent/Maps/Minimal_Default.Minimal_Default:PersistentLevel.Minimal_Default'
[2018.03.01-05.07.10:838][792]LogBlueprintUserMessages: Late EndPlayMap Detection: Level '/Game/StarterContent/Maps/Minimal_Default.Minimal_Default:PersistentLevel' has LevelScriptBlueprint '/Game/StarterContent/Maps/Minimal_Default.Minimal_Default:PersistentLevel.Minimal_Default' with GeneratedClass '/Game/StarterContent/Maps/Minimal_Default.Minimal_Default_C' with ClassGeneratedBy '/Game/StarterContent/Maps/Minimal_Default.Minimal_Default:PersistentLevel.Minimal_Default'
[2018.03.01-05.07.34:933][480]LogSlate: Took 0.009370 seconds to synchronously load lazily loaded font '../../../Engine/Content/Editor/Slate/Fonts/Roboto-Italic.ttf' (157K)
[2018.03.01-05.10.10:663][433]BlueprintLog: New page: Compile Menu
[2018.03.01-05.10.11:429][454]Cmd: OBJ SAVEPACKAGE PACKAGE="/Game/Menu" FILE="../../../../../../Users/Ather/Documents/Unreal Projects/PersonalProject/Content/Menu.uasset" SILENT=true
[2018.03.01-05.10.11:446][454]LogSavePackage: Save=8.20ms
[2018.03.01-05.10.11:446][454]LogSavePackage: Moving '../../../../../../Users/Ather/Documents/Unreal Projects/PersonalProject/Saved/MenuDDF065A043F6616862E268A3E6FBDE9C.tmp' to '../../../../../../Users/Ather/Documents/Unreal Projects/PersonalProject/Content/Menu.uasset'
[2018.03.01-05.10.11:451][454]LogSavePackage:Display: Finished SavePackage ../../../../../../Users/Ather/Documents/Unreal Projects/PersonalProject/Content/Menu.uasset
[2018.03.01-05.10.17:177][645]LogVSAccessor:Warning: Couldn't access Visual Studio
[2018.03.01-05.10.17:207][645]Recompiling PersonalProject...
[2018.03.01-05.10.17:208][645]Launching UnrealBuildTool... [C:/Program Files/Epic Games/UE_4.15/Engine/Binaries/DotNET/UnrealBuildTool.exe PersonalProject -ModuleWithSuffix PersonalProject 1936 Win64 Development -editorrecompile -canskiplink "C:/Users/Ather/Documents/Unreal Projects/PersonalProject/PersonalProject.uproject" ]
[2018.03.01-05.10.17:231][645]Warning: Starting HotReload took  0.1s.
[2018.03.01-05.10.40:737][498]CompilerResultsLog: New page: Compilation - Feb 28, 2018, 1:10:40 PM
[2018.03.01-05.10.40:737][498]CompilerResultsLog: Info Compiling game modules for hot reload
[2018.03.01-05.10.40:737][498]CompilerResultsLog: Info Target is up to date
[2018.03.01-05.10.40:737][498]CompilerResultsLog: Info Total build time: 22.87 seconds (NoActionsToExecute executor: 0.00 seconds)
[2018.03.01-05.10.40:742][498]LogMainFrame: MainFrame: Module compiling took 23.565 seconds
[2018.03.01-05.10.41:094][498]LogContentBrowser: Native class hierarchy populated in 0.0098 seconds. Added 2251 classes and 459 folders.
[2018.03.01-05.10.41:135][498]Display: HotReload took 24.0s.
[2018.03.01-05.10.55:140][ 95]LogSavePackage: Save=107.29ms
[2018.03.01-05.10.55:140][ 95]LogSavePackage: Moving '../../../../../../Users/Ather/Documents/Unreal Projects/PersonalProject/Saved/UEDPCMinimal_Default2CEAE3604A42963C50452881977B660C.tmp' to '../../../../../../Users/Ather/Documents/Unreal Projects/PersonalProject/Saved/Autosaves/Game/StarterContent/Maps/UEDPCMinimal_Default.umap'
[2018.03.01-05.10.55:144][ 95]LogSavePackage:Display: Finished SavePackage ../../../../../../Users/Ather/Documents/Unreal Projects/PersonalProject/Saved/Autosaves/Game/StarterContent/Maps/UEDPCMinimal_Default.umap
[2018.03.01-05.10.55:197][ 95]LogSavePackage: Save=36.94ms
[2018.03.01-05.10.55:197][ 95]LogSavePackage: Moving '../../../../../../Users/Ather/Documents/Unreal Projects/PersonalProject/Saved/Minimal_Default_BuiltData534C143E4B2D494728676BA13E70CCA2.tmp' to '../../../../../../Users/Ather/Documents/Unreal Projects/PersonalProject/Content/StarterContent/Maps/Minimal_Default_BuiltData.uasset'
[2018.03.01-05.10.55:200][ 95]LogSavePackage:Display: Finished SavePackage ../../../../../../Users/Ather/Documents/Unreal Projects/PersonalProject/Content/StarterContent/Maps/Minimal_Default_BuiltData.uasset
[2018.03.01-05.10.55:203][ 95]LogEditorTransaction: Undo Spawn Play From Here Start
[2018.03.01-05.10.55:699][118]LogTemp: Repeting last play command: Standalone Game
[2018.03.01-05.10.55:933][118]LogSavePackage: Save=95.36ms
[2018.03.01-05.10.55:933][118]LogSavePackage: Moving '../../../../../../Users/Ather/Documents/Unreal Projects/PersonalProject/Saved/UEDPCMinimal_Default84A1FB1D4F288EF33FCB0AA6AC43C375.tmp' to '../../../../../../Users/Ather/Documents/Unreal Projects/PersonalProject/Saved/Autosaves/Game/StarterContent/Maps/UEDPCMinimal_Default.umap'
[2018.03.01-05.10.55:937][118]LogSavePackage:Display: Finished SavePackage ../../../../../../Users/Ather/Documents/Unreal Projects/PersonalProject/Saved/Autosaves/Game/StarterContent/Maps/UEDPCMinimal_Default.umap
[2018.03.01-05.10.55:986][118]LogSavePackage: Save=35.40ms
[2018.03.01-05.10.55:986][118]LogSavePackage: Moving '../../../../../../Users/Ather/Documents/Unreal Projects/PersonalProject/Saved/Minimal_Default_BuiltData14438BDE4F377E0A995379BCF28D6FE5.tmp' to '../../../../../../Users/Ather/Documents/Unreal Projects/PersonalProject/Content/StarterContent/Maps/Minimal_Default_BuiltData.uasset'
[2018.03.01-05.10.55:989][118]LogSavePackage:Display: Finished SavePackage ../../../../../../Users/Ather/Documents/Unreal Projects/PersonalProject/Content/StarterContent/Maps/Minimal_Default_BuiltData.uasset
[2018.03.01-05.10.55:992][118]LogEditorTransaction: Undo Spawn Play From Here Start
[2018.03.01-05.12.43:286][881]BlueprintLog: New page: Compile Menu
[2018.03.01-05.12.44:225][906]Cmd: OBJ SAVEPACKAGE PACKAGE="/Game/Menu" FILE="../../../../../../Users/Ather/Documents/Unreal Projects/PersonalProject/Content/Menu.uasset" SILENT=true
[2018.03.01-05.12.44:244][906]LogSavePackage: Save=9.17ms
[2018.03.01-05.12.44:244][906]LogSavePackage: Moving '../../../../../../Users/Ather/Documents/Unreal Projects/PersonalProject/Saved/Menu0726CBA84D061241DA11708B5E696AD8.tmp' to '../../../../../../Users/Ather/Documents/Unreal Projects/PersonalProject/Content/Menu.uasset'
[2018.03.01-05.12.44:251][906]LogSavePackage:Display: Finished SavePackage ../../../../../../Users/Ather/Documents/Unreal Projects/PersonalProject/Content/Menu.uasset
[2018.03.01-05.12.47:852][ 23]LogTemp: Repeting last play command: Standalone Game
[2018.03.01-05.12.48:107][ 23]LogSavePackage: Save=122.53ms
[2018.03.01-05.12.48:107][ 23]LogSavePackage: Moving '../../../../../../Users/Ather/Documents/Unreal Projects/PersonalProject/Saved/UEDPCMinimal_DefaultE868E4DF42C45C9843EA8FA0F0DD3D23.tmp' to '../../../../../../Users/Ather/Documents/Unreal Projects/PersonalProject/Saved/Autosaves/Game/StarterContent/Maps/UEDPCMinimal_Default.umap'
[2018.03.01-05.12.48:113][ 23]LogSavePackage:Display: Finished SavePackage ../../../../../../Users/Ather/Documents/Unreal Projects/PersonalProject/Saved/Autosaves/Game/StarterContent/Maps/UEDPCMinimal_Default.umap
[2018.03.01-05.12.48:168][ 23]LogSavePackage: Save=33.30ms
[2018.03.01-05.12.48:169][ 23]LogSavePackage: Moving '../../../../../../Users/Ather/Documents/Unreal Projects/PersonalProject/Saved/Minimal_Default_BuiltData7ED7D0A045B52A99426337BC27E56021.tmp' to '../../../../../../Users/Ather/Documents/Unreal Projects/PersonalProject/Content/StarterContent/Maps/Minimal_Default_BuiltData.uasset'
[2018.03.01-05.12.48:171][ 23]LogSavePackage:Display: Finished SavePackage ../../../../../../Users/Ather/Documents/Unreal Projects/PersonalProject/Content/StarterContent/Maps/Minimal_Default_BuiltData.uasset
[2018.03.01-05.12.48:175][ 23]LogEditorTransaction: Undo Spawn Play From Here Start
[2018.03.01-05.13.50:562][318]LogTemp: Repeting last play command: Standalone Game
[2018.03.01-05.13.50:795][318]LogSavePackage: Save=96.83ms
[2018.03.01-05.13.50:795][318]LogSavePackage: Moving '../../../../../../Users/Ather/Documents/Unreal Projects/PersonalProject/Saved/UEDPCMinimal_Default2D2A23CF4F9C836B2A4884BB13931640.tmp' to '../../../../../../Users/Ather/Documents/Unreal Projects/PersonalProject/Saved/Autosaves/Game/StarterContent/Maps/UEDPCMinimal_Default.umap'
[2018.03.01-05.13.50:798][318]LogSavePackage:Display: Finished SavePackage ../../../../../../Users/Ather/Documents/Unreal Projects/PersonalProject/Saved/Autosaves/Game/StarterContent/Maps/UEDPCMinimal_Default.umap
[2018.03.01-05.13.50:845][318]LogSavePackage: Save=33.71ms
[2018.03.01-05.13.50:845][318]LogSavePackage: Moving '../../../../../../Users/Ather/Documents/Unreal Projects/PersonalProject/Saved/Minimal_Default_BuiltDataBF271E9849BC9BD93503D99E40E89982.tmp' to '../../../../../../Users/Ather/Documents/Unreal Projects/PersonalProject/Content/StarterContent/Maps/Minimal_Default_BuiltData.uasset'
[2018.03.01-05.13.50:848][318]LogSavePackage:Display: Finished SavePackage ../../../../../../Users/Ather/Documents/Unreal Projects/PersonalProject/Content/StarterContent/Maps/Minimal_Default_BuiltData.uasset
[2018.03.01-05.13.50:852][318]LogEditorTransaction: Undo Spawn Play From Here Start
[2018.03.01-05.16.18:719][213]LogVSAccessor:Warning: Visual Studio is open but could not be queried - it may be blocked by a modal operation
[2018.03.01-05.16.18:748][214]LogVSAccessor:Warning: Visual Studio is open but could not be queried - it may be blocked by a modal operation
[2018.03.01-05.16.19:081][215]LogVSAccessor:Warning: Visual Studio is open but could not be queried - it may be blocked by a modal operation
[2018.03.01-05.16.19:414][216]LogVSAccessor:Warning: Visual Studio is open but could not be queried - it may be blocked by a modal operation
[2018.03.01-05.16.19:747][217]LogVSAccessor:Warning: Visual Studio is open but could not be queried - it may be blocked by a modal operation
[2018.03.01-05.16.20:081][218]LogVSAccessor:Warning: Visual Studio is open but could not be queried - it may be blocked by a modal operation
[2018.03.01-05.16.20:415][219]LogVSAccessor:Warning: Visual Studio is open but could not be queried - it may be blocked by a modal operation
[2018.03.01-05.16.20:748][220]LogVSAccessor:Warning: Visual Studio is open but could not be queried - it may be blocked by a modal operation
[2018.03.01-05.16.21:081][221]LogVSAccessor:Warning: Visual Studio is open but could not be queried - it may be blocked by a modal operation
[2018.03.01-05.16.21:415][222]LogVSAccessor:Warning: Visual Studio is open but could not be queried - it may be blocked by a modal operation
[2018.03.01-05.16.21:747][223]LogVSAccessor:Warning: Visual Studio is open but could not be queried - it may be blocked by a modal operation
[2018.03.01-05.16.22:081][224]LogVSAccessor:Warning: Visual Studio is open but could not be queried - it may be blocked by a modal operation
[2018.03.01-05.16.22:414][225]LogVSAccessor:Warning: Visual Studio is open but could not be queried - it may be blocked by a modal operation
[2018.03.01-05.16.22:748][226]LogVSAccessor:Warning: Visual Studio is open but could not be queried - it may be blocked by a modal operation
[2018.03.01-05.16.23:077][227]LogVSAccessor:Warning: Visual Studio is open but could not be queried - it may be blocked by a modal operation
[2018.03.01-05.16.23:413][228]LogVSAccessor:Warning: Visual Studio is open but could not be queried - it may be blocked by a modal operation
[2018.03.01-05.16.23:745][229]LogVSAccessor:Warning: Visual Studio is open but could not be queried - it may be blocked by a modal operation
[2018.03.01-05.16.24:082][230]LogVSAccessor:Warning: Visual Studio is open but could not be queried - it may be blocked by a modal operation
[2018.03.01-05.16.24:415][231]LogVSAccessor:Warning: Visual Studio is open but could not be queried - it may be blocked by a modal operation
[2018.03.01-05.16.24:747][232]LogVSAccessor:Warning: Visual Studio is open but could not be queried - it may be blocked by a modal operation
[2018.03.01-05.16.25:081][233]LogVSAccessor:Warning: Visual Studio is open but could not be queried - it may be blocked by a modal operation
[2018.03.01-05.16.25:417][234]LogVSAccessor:Warning: Visual Studio is open but could not be queried - it may be blocked by a modal operation
[2018.03.01-05.16.25:747][235]LogVSAccessor:Warning: Visual Studio is open but could not be queried - it may be blocked by a modal operation
[2018.03.01-05.16.26:081][236]LogVSAccessor:Warning: Visual Studio is open but could not be queried - it may be blocked by a modal operation
[2018.03.01-05.16.26:415][237]LogVSAccessor:Warning: Visual Studio is open but could not be queried - it may be blocked by a modal operation
[2018.03.01-05.16.26:748][238]LogVSAccessor:Warning: Visual Studio is open but could not be queried - it may be blocked by a modal operation
[2018.03.01-05.16.27:081][239]LogVSAccessor:Warning: Visual Studio is open but could not be queried - it may be blocked by a modal operation
[2018.03.01-05.16.27:414][240]LogVSAccessor:Warning: Visual Studio is open but could not be queried - it may be blocked by a modal operation
[2018.03.01-05.16.27:748][241]LogVSAccessor:Warning: Visual Studio is open but could not be queried - it may be blocked by a modal operation
[2018.03.01-05.16.28:081][242]LogVSAccessor:Warning: Visual Studio is open but could not be queried - it may be blocked by a modal operation
[2018.03.01-05.16.28:416][243]LogVSAccessor:Warning: Visual Studio is open but could not be queried - it may be blocked by a modal operation
[2018.03.01-05.16.28:747][244]LogVSAccessor:Warning: Visual Studio is open but could not be queried - it may be blocked by a modal operation
[2018.03.01-05.16.29:081][245]LogVSAccessor:Warning: Visual Studio is open but could not be queried - it may be blocked by a modal operation
[2018.03.01-05.16.29:413][246]LogVSAccessor:Warning: Visual Studio is open but could not be queried - it may be blocked by a modal operation
[2018.03.01-05.16.29:748][247]LogVSAccessor:Warning: Visual Studio is open but could not be queried - it may be blocked by a modal operation
[2018.03.01-05.16.30:081][248]LogVSAccessor:Warning: Visual Studio is open but could not be queried - it may be blocked by a modal operation
[2018.03.01-05.16.30:414][249]LogVSAccessor:Warning: Visual Studio is open but could not be queried - it may be blocked by a modal operation
[2018.03.01-05.16.30:748][250]LogVSAccessor:Warning: Visual Studio is open but could not be queried - it may be blocked by a modal operation
[2018.03.01-05.16.31:081][251]LogVSAccessor:Warning: Visual Studio is open but could not be queried - it may be blocked by a modal operation
[2018.03.01-05.16.31:414][252]LogVSAccessor:Warning: Visual Studio is open but could not be queried - it may be blocked by a modal operation
[2018.03.01-05.16.31:743][253]LogVSAccessor:Warning: Visual Studio is open but could not be queried - it may be blocked by a modal operation
[2018.03.01-05.16.32:081][254]LogVSAccessor:Warning: Visual Studio is open but could not be queried - it may be blocked by a modal operation
[2018.03.01-05.16.32:415][255]LogVSAccessor:Warning: Visual Studio is open but could not be queried - it may be blocked by a modal operation
[2018.03.01-05.16.32:747][256]LogVSAccessor:Warning: Visual Studio is open but could not be queried - it may be blocked by a modal operation
[2018.03.01-05.16.33:081][257]LogVSAccessor:Warning: Visual Studio is open but could not be queried - it may be blocked by a modal operation
[2018.03.01-05.16.33:415][258]LogVSAccessor:Warning: Visual Studio is open but could not be queried - it may be blocked by a modal operation
[2018.03.01-05.16.33:748][259]LogVSAccessor:Warning: Visual Studio is open but could not be queried - it may be blocked by a modal operation
[2018.03.01-05.16.34:081][260]LogVSAccessor:Warning: Visual Studio is open but could not be queried - it may be blocked by a modal operation
[2018.03.01-05.16.34:415][261]LogVSAccessor:Warning: Visual Studio is open but could not be queried - it may be blocked by a modal operation
[2018.03.01-05.16.34:749][262]LogVSAccessor:Warning: Visual Studio is open but could not be queried - it may be blocked by a modal operation
[2018.03.01-05.16.35:081][263]LogVSAccessor:Warning: Visual Studio is open but could not be queried - it may be blocked by a modal operation
[2018.03.01-05.16.35:415][264]LogVSAccessor:Warning: Visual Studio is open but could not be queried - it may be blocked by a modal operation
[2018.03.01-05.16.35:748][265]LogVSAccessor:Warning: Visual Studio is open but could not be queried - it may be blocked by a modal operation
[2018.03.01-05.16.36:081][266]LogVSAccessor:Warning: Visual Studio is open but could not be queried - it may be blocked by a modal operation
[2018.03.01-05.16.36:414][267]LogVSAccessor:Warning: Visual Studio is open but could not be queried - it may be blocked by a modal operation
[2018.03.01-05.16.36:747][268]LogVSAccessor:Warning: Visual Studio is open but could not be queried - it may be blocked by a modal operation
[2018.03.01-05.16.37:081][269]LogVSAccessor:Warning: Visual Studio is open but could not be queried - it may be blocked by a modal operation
[2018.03.01-05.16.37:415][270]LogVSAccessor:Warning: Visual Studio is open but could not be queried - it may be blocked by a modal operation
[2018.03.01-05.16.37:744][271]LogVSAccessor:Warning: Visual Studio is open but could not be queried - it may be blocked by a modal operation
[2018.03.01-05.16.38:081][272]LogVSAccessor:Warning: Visual Studio is open but could not be queried - it may be blocked by a modal operation
[2018.03.01-05.16.38:414][273]LogVSAccessor:Warning: Visual Studio is open but could not be queried - it may be blocked by a modal operation
[2018.03.01-05.16.38:748][274]LogVSAccessor:Warning: Visual Studio is open but could not be queried - it may be blocked by a modal operation
[2018.03.01-05.16.39:081][275]LogVSAccessor:Warning: Visual Studio is open but could not be queried - it may be blocked by a modal operation
[2018.03.01-05.16.39:415][276]LogVSAccessor:Warning: Visual Studio is open but could not be queried - it may be blocked by a modal operation
[2018.03.01-05.16.39:748][277]LogVSAccessor:Warning: Visual Studio is open but could not be queried - it may be blocked by a modal operation
[2018.03.01-05.16.40:081][278]LogVSAccessor:Warning: Visual Studio is open but could not be queried - it may be blocked by a modal operation
[2018.03.01-05.16.40:416][279]LogVSAccessor:Warning: Visual Studio is open but could not be queried - it may be blocked by a modal operation
[2018.03.01-05.16.40:748][280]LogVSAccessor:Warning: Visual Studio is open but could not be queried - it may be blocked by a modal operation
[2018.03.01-05.16.41:081][281]LogVSAccessor:Warning: Visual Studio is open but could not be queried - it may be blocked by a modal operation
[2018.03.01-05.16.41:411][282]LogVSAccessor:Warning: Visual Studio is open but could not be queried - it may be blocked by a modal operation
[2018.03.01-05.16.41:747][283]LogVSAccessor:Warning: Visual Studio is open but could not be queried - it may be blocked by a modal operation
[2018.03.01-05.16.42:081][284]LogVSAccessor:Warning: Visual Studio is open but could not be queried - it may be blocked by a modal operation
[2018.03.01-05.16.42:415][285]LogVSAccessor:Warning: Visual Studio is open but could not be queried - it may be blocked by a modal operation
[2018.03.01-05.16.42:745][286]LogVSAccessor:Warning: Visual Studio is open but could not be queried - it may be blocked by a modal operation
[2018.03.01-05.16.43:078][287]LogVSAccessor:Warning: Visual Studio is open but could not be queried - it may be blocked by a modal operation
[2018.03.01-05.16.43:411][288]LogVSAccessor:Warning: Visual Studio is open but could not be queried - it may be blocked by a modal operation
[2018.03.01-05.16.43:748][289]LogVSAccessor:Warning: Visual Studio is open but could not be queried - it may be blocked by a modal operation
[2018.03.01-05.16.44:081][290]LogVSAccessor:Warning: Visual Studio is open but could not be queried - it may be blocked by a modal operation
[2018.03.01-05.16.44:409][291]LogVSAccessor:Warning: Visual Studio is open but could not be queried - it may be blocked by a modal operation
[2018.03.01-05.16.44:747][292]LogVSAccessor:Warning: Visual Studio is open but could not be queried - it may be blocked by a modal operation
[2018.03.01-05.16.45:075][293]LogVSAccessor:Warning: Visual Studio is open but could not be queried - it may be blocked by a modal operation
[2018.03.01-05.16.45:409][294]LogVSAccessor:Warning: Visual Studio is open but could not be queried - it may be blocked by a modal operation
[2018.03.01-05.16.45:742][295]LogVSAccessor:Warning: Visual Studio is open but could not be queried - it may be blocked by a modal operation
[2018.03.01-05.16.46:076][296]LogVSAccessor:Warning: Visual Studio is open but could not be queried - it may be blocked by a modal operation
[2018.03.01-05.16.46:409][297]LogVSAccessor:Warning: Visual Studio is open but could not be queried - it may be blocked by a modal operation
[2018.03.01-05.17.32:652][298]LogWindows: Windows GetLastError: The operation completed successfully. (0)
